module redditclone

go 1.23.5

require (
	github.com/go-playground/validator/v10 v10.25.0
	github.com/golang-jwt/jwt/v5 v5.2.1
	github.com/google/uuid v1.6.0
	github.com/gorilla/mux v1.8.1
)

require (
	github.com/gabriel-vasile/mimetype v1.4.8 // indirect
	github.com/go-playground/locales v0.14.1 // indirect
	github.com/go-playground/universal-translator v0.18.1 // indirect
	github.com/leodido/go-urn v1.4.0 // indirect
	golang.org/x/crypto v0.32.0 // indirect
	golang.org/x/net v0.34.0 // indirect
	golang.org/x/sys v0.29.0 // indirect
	golang.org/x/text v0.21.0 // indirect
)
